{
  "name": "garden",
  "application": {
    "head": "assets/head.html",
    "title": "garden",
    "icon": "assets/favicon.png"
  },
  "external": {
    "stylesheets": [
      "assets/style.css"
    ]
  },
  "source-directories": [
    "source"
  ],
  "test-directories": [
    "tests"
  ]
}